{
    "sites": {
        "": {
            "acceso": "public",
            "roles": []
        },
        "NoAutorizado": {
            "acceso": "public",
            "roles": []
        },
        "Login": {
            "acceso": "public",
            "roles": []
        },
        "HomeU": {
            "acceso": "private",
            "roles": ["vendedor"]
        },
        "HomeA": {
            "acceso": "private",
            "roles": ["admin"]
        },
        "EditUsuario": {
            "acceso": "private",
            "roles": []
        },
        "ListProducto": {
            "acceso": "private",
            "roles": []
        },
        "EditProducto": {
            "acceso": "private",
            "roles": []
        },
        "ListCategoria": {
            "acceso": "private",
            "roles": []
        },
        "EditCategoria": {
            "acceso": "private",
            "roles": []
        },
        "DashboardAdmin": {
            "acceso": "private",
            "roles": ["admin"]
        },
        "DashboardVendor": {
            "acceso": "private",
            "roles": ["vendedor"]
        },
        "MiPerfil": {
            "acceso": "private",
            "roles": []
        },
        "Venta": {
            "acceso": "private",
            "roles": []
        },
        "Checkout": {
            "acceso": "private",
            "roles": []
        },
        "VentaCompletada": {
            "acceso": "private",
            "roles": []
        },
        "ListUsuario": {
            "acceso": "private",
            "roles": []
        },
        "ListFacturaCliente": {
            "acceso": "private",
            "roles": []
        },
        "ListGrupoCliente": {
            "acceso": "private",
            "roles": []
        },
        "EditGrupoCliente": {
            "acceso": "private",
            "roles": []
        },
        "ListCliente": {
            "acceso": "private",
            "roles": []
        },
        "EditCliente": {
            "acceso": "private",
            "roles": []
        },
        "ListProveedor": {
            "acceso": "private",
            "roles": []
        },
        "EditProveedor": {
            "acceso": "private",
            "roles": []
        },
        "CarritoVenta": {
            "acceso": "private",
            "roles": []
        }
    },
    "default-sites": {
        "vendedor": "HomeU",
        "admin": "HomeA",
        "no-authorized": "NoAutorizado"
    }
}